Time: 0
Waiting clients: (2, 4, 2), (8, 5, 5), (1, 7, 5), (4, 7, 2), (10, 8, 2), (6, 9, 3)
Time: 1
Waiting clients: (2, 4, 2), (8, 5, 5), (1, 7, 5), (4, 7, 2), (10, 8, 2), (6, 9, 3)
Time: 2
Waiting clients: (2, 4, 2), (8, 5, 5), (1, 7, 5), (4, 7, 2), (10, 8, 2), (6, 9, 3)
(5, 2, 3) in queue: 2
(3, 2, 4) in queue: 1
Time: 3
Waiting clients: (2, 4, 2), (8, 5, 5), (1, 7, 5), (4, 7, 2), (10, 8, 2), (6, 9, 3)
(3, 2, 3) in queue: 1
(9, 3, 2) in queue: 3
(5, 2, 2) in queue: 2
Time: 4
Waiting clients: (2, 4, 2), (8, 5, 5), (1, 7, 5), (4, 7, 2), (10, 8, 2), (6, 9, 3)
(3, 2, 2) in queue: 1
(7, 4, 4) in queue: 4
(9, 3, 1) in queue: 3
(5, 2, 1) in queue: 2
Time: 5
Waiting clients: (1, 7, 5), (4, 7, 2), (10, 8, 2), (6, 9, 3)
(3, 2, 1) in queue: 1
(7, 4, 3) in queue: 4
(8, 5, 5) in queue: 3
(2, 4, 2) in queue: 2
Time: 6
Waiting clients: (4, 7, 2), (10, 8, 2), (6, 9, 3)
(7, 4, 2) in queue: 4
(8, 5, 4) in queue: 3
(2, 4, 1) in queue: 2
Time: 7
Waiting clients: (10, 8, 2), (6, 9, 3)
(1, 7, 5) in queue: 1
(7, 4, 1) in queue: 4
(8, 5, 3) in queue: 3
(4, 7, 2) in queue: 2
Time: 8
Waiting client: (6, 9, 3)
(1, 7, 4) in queue: 1
(10, 8, 2) in queue: 4
(4, 7, 1) in queue: 2
(8, 5, 2) in queue: 3
Time: 9
(1, 7, 3) in queue: 1
(10, 8, 1) in queue: 4
(6, 9, 3) in queue: 2
(8, 5, 1) in queue: 3
Time: 10
(1, 7, 2) in queue: 1
(6, 9, 2) in queue: 2
Time: 11
(1, 7, 1) in queue: 1
(6, 9, 1) in queue: 2
Time: 12
Simulation Results: 
Average Waiting Time: 3.3
Average Service Time: 1.9
Peak hour: 0
